%YAML 1.1
%TAG !u! tag:unity3d.com,2011:
--- !u!1 &3322834990270014061
GameObject:
  m_ObjectHideFlags: 0
  m_CorrespondingSourceObject: {fileID: 0}
  m_PrefabInstance: {fileID: 0}
  m_PrefabAsset: {fileID: 0}
  serializedVersion: 6
  m_Component:
  - component: {fileID: 3322834990270014059}
  - component: {fileID: 3322834990270014058}
  m_Layer: 0
  m_Name: GameManager
  m_TagString: Untagged
  m_Icon: {fileID: 0}
  m_NavMeshLayer: 0
  m_StaticEditorFlags: 0
  m_IsActive: 1
--- !u!4 &3322834990270014059
Transform:
  m_ObjectHideFlags: 0
  m_CorrespondingSourceObject: {fileID: 0}
  m_PrefabInstance: {fileID: 0}
  m_PrefabAsset: {fileID: 0}
  m_GameObject: {fileID: 3322834990270014061}
  m_LocalRotation: {x: 0, y: 0, z: 0, w: 1}
  m_LocalPosition: {x: 0.20132065, y: -4.4293213, z: 1.5039062}
  m_LocalScale: {x: 1, y: 1, z: 1}
  m_Children: []
  m_Father: {fileID: 0}
  m_RootOrder: 0
  m_LocalEulerAnglesHint: {x: 0, y: 0, z: 0}
--- !u!114 &3322834990270014058
MonoBehaviour:
  m_ObjectHideFlags: 0
  m_CorrespondingSourceObject: {fileID: 0}
  m_PrefabInstance: {fileID: 0}
  m_PrefabAsset: {fileID: 0}
  m_GameObject: {fileID: 3322834990270014061}
  m_Enabled: 1
  m_EditorHideFlags: 0
  m_Script: {fileID: 11500000, guid: e799805cf0c8f214799c97e54117ef37, type: 3}
  m_Name: 
  m_EditorClassIdentifier: 
  spawnPoint: {fileID: 0}
  playerPrefab: {fileID: 9192254223030021038, guid: 0e7225c0b91758a4db654357c1330460,
    type: 3}
  enemyPrefabs:
  - {fileID: 9192254223030021038, guid: 0cf38425f88c10449a4d6b95c00a9bbd, type: 3}
  - {fileID: 9192254223030021038, guid: 9a137d05525891a4a9a81ab783cb8326, type: 3}
  - {fileID: 9192254223030021038, guid: 3926ad1830219e646b0d8dccbb667d1f, type: 3}
  - {fileID: 9192254223030021038, guid: d32a0e6940c893f439901bf4bd9cc385, type: 3}
  - {fileID: 9192254223030021038, guid: c8df5934d62d4864b9d3bdbdc93ed6a7, type: 3}
  cam: {fileID: 0}
